^C:\ASP\DEMO_LINQ_WINFORM\DEMO_LINQ_WINFORM\PROPERTIES\RESOURCES.RESX
C:\WINDOWS\MICROSOFT.NET\FRAMEWORK\V2.0.50727\CONFIG\SECURITY.CONFIG
C:\WINDOWS\MICROSOFT.NET\FRAMEWORK\V2.0.50727\CONFIG\ENTERPRISESEC.CONFIG
^C:\ASP\DEMO_LINQ_WINFORM\DEMO_LINQ_WINFORM\FRM_MEMBER.RESX
^C:\ASP\DEMO_LINQ_WINFORM\DEMO_LINQ_WINFORM\FRM_LIST_MEMBER.RESX
